guia 5 parte B/ejercicio2/simulation/qsim/D_FF.msim.vcd
$comment
	File created using the following command:
		vcd file D_FF.msim.vcd -direction
$end
$date
	Thu Nov 02 13:42:05 2023
$end
$version
	ModelSim Version 10.1d
$end
$timescale
	1ps
$end
$scope module sumador_completo_vlg_vec_tst $end
$var reg 1 ! clk $end
$var reg 1 " in_a $end
$var reg 1 # in_b $end
$var reg 1 $ in_cin $end
$var wire 1 % o_count $end
$var wire 1 & o_f $end
$var wire 1 ' sampler $end
$scope module i1 $end
$var wire 1 ( gnd $end
$var wire 1 ) vcc $end
$var wire 1 * unknown $end
$var tri1 1 + devclrn $end
$var tri1 1 , devpor $end
$var tri1 1 - devoe $end
$var wire 1 . D2|Q~q $end
$var wire 1 / in_b~input_o $end
$var wire 1 0 D2|Q~feeder_combout $end
$var wire 1 1 o_f~output_o $end
$var wire 1 2 o_count~output_o $end
$var wire 1 3 clk~input_o $end
$var wire 1 4 clk~inputclkctrl_outclk $end
$var wire 1 5 in_a~input_o $end
$var wire 1 6 D1|Q~feeder_combout $end
$var wire 1 7 D1|Q~q $end
$var wire 1 8 in_cin~input_o $end
$var wire 1 9 D3|Q~feeder_combout $end
$var wire 1 : D3|Q~q $end
$var wire 1 ; f~0_combout $end
$var wire 1 < D5|Q~q $end
$var wire 1 = cout~0_combout $end
$var wire 1 > D4|Q~q $end
$upscope $end
$upscope $end
$enddefinitions $end
#0
$dumpvars
0!
0"
0#
0$
x%
x&
x'
0(
1)
x*
1+
1,
1-
0.
0/
x0
x1
x2
03
x4
05
x6
07
08
x9
0:
x;
0<
x=
0>
$end
#138
04
#545
0=
#716
0;
#2837
09
#2848
06
#3080
00
#3295
02
0%
#3299
01
0&
#5000
1!
0'
#5516
13
#5670
14
#10000
0!
1'
#10681
03
#10819
04
#15000
1!
0'
#15516
13
#15670
14
#20000
1"
0!
1'
#20516
15
#20681
03
#20819
04
#23128
16
#25000
1!
0'
#25516
13
#25670
14
#27416
17
#27886
1;
#30000
0!
1'
#30681
03
#30819
04
#35000
1!
0'
#35516
13
#35670
14
#37416
1<
#40000
0!
1'
#40670
11
1&
#40681
03
#40819
04
#45000
1!
0'
#45516
13
#45670
14
#50000
0!
1'
#50681
03
#50819
04
#55000
1!
0'
#55516
13
#55670
14
#60000
0!
1'
#60681
03
#60819
04
#65000
1!
0'
#65516
13
#65670
14
#70000
0!
1'
#70681
03
#70819
04
#75000
1!
0'
#75516
13
#75670
14
#80000
0!
1'
#80681
03
#80819
04
#85000
1!
0'
#85516
13
#85670
14
#90000
0!
1'
#90681
03
#90819
04
#95000
1!
0'
#95516
13
#95670
14
#100000
0"
0!
1'
#100681
03
05
#100819
04
#103529
06
#105000
1!
0'
#105516
13
#105670
14
#107416
07
#107965
0;
#110000
0!
1'
#110681
03
#110819
04
#115000
1!
0'
#115516
13
#115670
14
#117416
0<
#120000
0!
1'
#120681
03
#120715
01
0&
#120819
04
#125000
1!
0'
#125516
13
#125670
14
#130000
0!
1'
#130681
03
#130819
04
#135000
1!
0'
#135516
13
#135670
14
#140000
0!
1'
#140681
03
#140819
04
#145000
1!
0'
#145516
13
#145670
14
#150000
0!
1'
#150681
03
#150819
04
#155000
1!
0'
#155516
13
#155670
14
#160000
0!
1'
#160681
03
#160819
04
#165000
1!
0'
#165516
13
#165670
14
#170000
0!
1'
#170681
03
#170819
04
#175000
1!
0'
#175516
13
#175670
14
#180000
0!
1'
#180681
03
#180819
04
#185000
1!
0'
#185516
13
#185670
14
#190000
0!
1'
#190681
03
#190819
04
#195000
1!
0'
#195516
13
#195670
14
#200000
0!
1'
#200681
03
#200819
04
#205000
1!
0'
#205516
13
#205670
14
#210000
1#
1"
0!
1'
#210516
15
1/
#210681
03
#210819
04
#213128
16
#213363
10
#215000
1!
0'
#215516
13
#215670
14
#217416
1.
17
#218011
1=
#220000
0!
1'
#220681
03
#220819
04
#225000
1!
0'
#225516
13
#225670
14
#227416
1>
#230000
0!
1'
#230681
03
#230683
12
1%
#230819
04
#235000
1!
0'
#235516
13
#235670
14
#240000
1$
0!
1'
#240516
18
#240681
03
#240819
04
#243113
19
#245000
1!
0'
#245516
13
#245670
14
#247416
1:
#247773
1;
#250000
0!
1'
#250681
03
#250819
04
#255000
1!
0'
#255516
13
#255670
14
#257416
1<
#260000
0!
1'
#260670
11
1&
#260681
03
#260819
04
#265000
1!
0'
#265516
13
#265670
14
#270000
0!
1'
#270681
03
#270819
04
#275000
1!
0'
#275516
13
#275670
14
#280000
0!
1'
#280681
03
#280819
04
#285000
1!
0'
#285516
13
#285670
14
#290000
0!
1'
#290681
03
#290819
04
#295000
1!
0'
#295516
13
#295670
14
#300000
0$
0!
1'
#300681
03
08
#300819
04
#303518
09
#305000
1!
0'
#305516
13
#305670
14
#307416
0:
#307835
0;
#310000
0!
1'
#310681
03
#310819
04
#315000
1!
0'
#315516
13
#315670
14
#317416
0<
#320000
0#
0"
0!
1'
#320681
03
05
0/
#320715
01
0&
#320819
04
#323529
06
#323761
00
#325000
1!
0'
#325516
13
#325670
14
#327416
0.
07
#327961
0=
#330000
0!
1'
#330681
03
#330819
04
#335000
1!
0'
#335516
13
#335670
14
#337416
0>
#340000
0!
1'
#340681
03
#340711
02
0%
#340819
04
#345000
1!
0'
#345516
13
#345670
14
#350000
0!
1'
#350681
03
#350819
04
#355000
1!
0'
#355516
13
#355670
14
#360000
0!
1'
#360681
03
#360819
04
#365000
1!
0'
#365516
13
#365670
14
#370000
0!
1'
#370681
03
#370819
04
#375000
1!
0'
#375516
13
#375670
14
#380000
0!
1'
#380681
03
#380819
04
#385000
1!
0'
#385516
13
#385670
14
#390000
1#
0!
1'
#390516
1/
#390681
03
#390819
04
#393363
10
#395000
1!
0'
#395516
13
#395670
14
#397416
1.
#398028
1;
#400000
0!
1'
#400681
03
#400819
04
#405000
1!
0'
#405516
13
#405670
14
#407416
1<
#410000
0!
1'
#410670
11
1&
#410681
03
#410819
04
#415000
1!
0'
#415516
13
#415670
14
#420000
0!
1'
#420681
03
#420819
04
#425000
1!
0'
#425516
13
#425670
14
#430000
0!
1'
#430681
03
#430819
04
#435000
1!
0'
#435516
13
#435670
14
#440000
0!
1'
#440681
03
#440819
04
#445000
1!
0'
#445516
13
#445670
14
#450000
0#
0!
1'
#450681
03
0/
#450819
04
#453761
00
#455000
1!
0'
#455516
13
#455670
14
#457416
0.
#458132
0;
#460000
0!
1'
#460681
03
#460819
04
#465000
1!
0'
#465516
13
#465670
14
#467416
0<
#470000
0!
1'
#470681
03
#470715
01
0&
#470819
04
#475000
1!
0'
#475516
13
#475670
14
#480000
0!
1'
#480681
03
#480819
04
#485000
1!
0'
#485516
13
#485670
14
#490000
1"
0!
1'
#490516
15
#490681
03
#490819
04
#493128
16
#495000
1!
0'
#495516
13
#495670
14
#497416
17
#497886
1;
#500000
0!
1'
#500681
03
#500819
04
#505000
1!
0'
#505516
13
#505670
14
#507416
1<
#510000
0!
1'
#510670
11
1&
#510681
03
#510819
04
#515000
1!
0'
#515516
13
#515670
14
#520000
0"
0!
1'
#520681
03
05
#520819
04
#523529
06
#525000
1!
0'
#525516
13
#525670
14
#527416
07
#527965
0;
#530000
1$
0!
1'
#530516
18
#530681
03
#530819
04
#533113
19
#535000
1!
0'
#535516
13
#535670
14
#537416
1:
0<
#537773
1;
#540000
0!
1'
#540681
03
#540715
01
0&
#540819
04
#545000
1!
0'
#545516
13
#545670
14
#547416
1<
#550000
0!
1'
#550670
11
1&
#550681
03
#550819
04
#555000
1!
0'
#555516
13
#555670
14
#560000
0!
1'
#560681
03
#560819
04
#565000
1!
0'
#565516
13
#565670
14
#570000
0$
0!
1'
#570681
03
08
#570819
04
#573518
09
#575000
1!
0'
#575516
13
#575670
14
#577416
0:
#577835
0;
#580000
0!
1'
#580681
03
#580819
04
#585000
1!
0'
#585516
13
#585670
14
#587416
0<
#590000
0!
1'
#590681
03
#590715
01
0&
#590819
04
#595000
1!
0'
#595516
13
#595670
14
#600000
0!
1'
#600681
03
#600819
04
#605000
1!
0'
#605516
13
#605670
14
#610000
0!
1'
#610681
03
#610819
04
#615000
1!
0'
#615516
13
#615670
14
#620000
1#
1$
0!
1'
#620516
18
1/
#620681
03
#620819
04
#623113
19
#623363
10
#625000
1!
0'
#625516
13
#625670
14
#627416
1.
1:
#628011
1=
#630000
0!
1'
#630681
03
#630819
04
#635000
1!
0'
#635516
13
#635670
14
#637416
1>
#640000
0!
1'
#640681
03
#640683
12
1%
#640819
04
#645000
1!
0'
#645516
13
#645670
14
#650000
0!
1'
#650681
03
#650819
04
#655000
1!
0'
#655516
13
#655670
14
#660000
0!
1'
#660681
03
#660819
04
#665000
1!
0'
#665516
13
#665670
14
#670000
0!
1'
#670681
03
#670819
04
#675000
1!
0'
#675516
13
#675670
14
#680000
0#
0$
0!
1'
#680681
03
08
0/
#680819
04
#683518
09
#683761
00
#685000
1!
0'
#685516
13
#685670
14
#687416
0.
0:
#687832
0=
#690000
0!
1'
#690681
03
#690819
04
#695000
1!
0'
#695516
13
#695670
14
#697416
0>
#700000
0!
1'
#700681
03
#700711
02
0%
#700819
04
#705000
1!
0'
#705516
13
#705670
14
#710000
0!
1'
#710681
03
#710819
04
#715000
1!
0'
#715516
13
#715670
14
#720000
0!
1'
#720681
03
#720819
04
#725000
1!
0'
#725516
13
#725670
14
#730000
0!
1'
#730681
03
#730819
04
#735000
1!
0'
#735516
13
#735670
14
#740000
0!
1'
#740681
03
#740819
04
#745000
1!
0'
#745516
13
#745670
14
#750000
0!
1'
#750681
03
#750819
04
#755000
1!
0'
#755516
13
#755670
14
#760000
0!
1'
#760681
03
#760819
04
#765000
1!
0'
#765516
13
#765670
14
#770000
0!
1'
#770681
03
#770819
04
#775000
1!
0'
#775516
13
#775670
14
#780000
0!
1'
#780681
03
#780819
04
#785000
1!
0'
#785516
13
#785670
14
#790000
0!
1'
#790681
03
#790819
04
#795000
1!
0'
#795516
13
#795670
14
#800000
0!
1'
#800681
03
#800819
04
#805000
1!
0'
#805516
13
#805670
14
#810000
0!
1'
#810681
03
#810819
04
#815000
1!
0'
#815516
13
#815670
14
#820000
0!
1'
#820681
03
#820819
04
#825000
1!
0'
#825516
13
#825670
14
#830000
0!
1'
#830681
03
#830819
04
#835000
1!
0'
#835516
13
#835670
14
#840000
0!
1'
#840681
03
#840819
04
#845000
1!
0'
#845516
13
#845670
14
#850000
0!
1'
#850681
03
#850819
04
#855000
1!
0'
#855516
13
#855670
14
#860000
0!
1'
#860681
03
#860819
04
#865000
1!
0'
#865516
13
#865670
14
#870000
0!
1'
#870681
03
#870819
04
#875000
1!
0'
#875516
13
#875670
14
#880000
0!
1'
#880681
03
#880819
04
#885000
1!
0'
#885516
13
#885670
14
#890000
0!
1'
#890681
03
#890819
04
#895000
1!
0'
#895516
13
#895670
14
#900000
0!
1'
#900681
03
#900819
04
#905000
1!
0'
#905516
13
#905670
14
#910000
0!
1'
#910681
03
#910819
04
#915000
1!
0'
#915516
13
#915670
14
#920000
0!
1'
#920681
03
#920819
04
#925000
1!
0'
#925516
13
#925670
14
#930000
0!
1'
#930681
03
#930819
04
#935000
1!
0'
#935516
13
#935670
14
#940000
0!
1'
#940681
03
#940819
04
#945000
1!
0'
#945516
13
#945670
14
#950000
0!
1'
#950681
03
#950819
04
#955000
1!
0'
#955516
13
#955670
14
#960000
0!
1'
#960681
03
#960819
04
#965000
1!
0'
#965516
13
#965670
14
#970000
0!
1'
#970681
03
#970819
04
#975000
1!
0'
#975516
13
#975670
14
#980000
0!
1'
#980681
03
#980819
04
#985000
1!
0'
#985516
13
#985670
14
#990000
0!
1'
#990681
03
#990819
04
#995000
1!
0'
#995516
13
